test_run_dir.old/make_a_vcd/MM2hdmi.vcd
$date
2020-12-02T11:39+0000
$end
$version
0.2
$end
$comment

$end
$timescale 1ns  $end
$scope module MM2hdmi $end
 $var wire 8 ! regMuxRed0 $end
 $var wire 5 " regRow $end
 $var wire 8 # regMuxRed9 $end
 $var wire 1 $ io_vSync $end
 $var wire 8 % regMuxRed3 $end
 $var wire 8 & _GEN_2 $end
 $var wire 8 ' _GEN_10 $end
 $var wire 1 ( io_newData $end
 $var wire 8 ) regMuxRed10 $end
 $var wire 8 * regMuxRed13 $end
 $var wire 8 + _GEN_5 $end
 $var wire 8 , regMuxRed6 $end
 $var wire 4 - outControlCounter $end
 $var wire 8 . _GEN_13 $end
 $var wire 8 / _GEN_8 $end
 $var wire 8 0 io_red $end
 $var wire 8 1 _GEN_12 $end
 $var wire 8 2 _GEN_15 $end
 $var wire 8 3 _GEN_7 $end
 $var wire 1 4 io_hSync $end
 $var wire 8 5 regMuxRed8 $end
 $var wire 8 6 regMuxRed2 $end
 $var wire 16 7 regData $end
 $var wire 1 8 _GEN_1 $end
 $var wire 8 9 regMuxRed12 $end
 $var wire 8 : regMuxRed5 $end
 $var wire 8 ; _GEN_4 $end
 $var wire 8 < regMuxRed15 $end
 $var wire 1 = clock $end
 $var wire 16 > io_data $end
 $var wire 8 ? _GEN_11 $end
 $var wire 8 @ regMuxRed4 $end
 $var wire 8 A regMuxRed7 $end
 $var wire 8 B regMuxRed14 $end
 $var wire 8 C _GEN_6 $end
 $var wire 1 D regNewData $end
 $var wire 8 E _GEN_14 $end
 $var wire 5 F _GEN_0 $end
 $var wire 8 G _GEN_9 $end
 $var wire 8 H regMuxRed1 $end
 $var wire 1 I reset $end
 $var wire 8 J regMuxRed11 $end
 $var wire 8 K _GEN_3 $end
 $var wire 1 L regVSync $end
$upscope $end
$enddefinitions $end
$dumpvars
b00000000 /
b00000000 E
b00000000 0
b00000000 1
0=
b00000000 G
b00000000 2
b00000000 *
b00000000 H
b00000000 +
b00000000 A
b00000000 ,
08
b00000000 B
b0000000000000000 >
b00000 F
b00000000 %
b00000000 C
b00000000 &
b00000000 <
b00000000 '
0I
04
b00000000 )
b00000000 !
b00000000 ?
0L
b00000000 @
0D
b00000000 #
b00000000 9
0(
b00000000 :
b0000000000000000 7
b00000000 ;
b00000000 3
b00000 "
b0000 -
b00000000 J
b00000000 5
0$
b00000000 K
b00000000 6
b00000000 .
$end
#0
1I
#1
1=
#6
0=
#11
1=
#16
0=
#21
1=
#26
0=
#31
1=
#36
0=
#41
1=
#46
b00001 F
0=
1(
0I
b0000000000000001 >
#51
b0001 -
b00001 "
b00010 F
14
1D
1=
b0000000000000001 7
#56
b00001 F
0=
0(
#61
b11111111 !
b11111111 0
b0000 -
04
0D
1=
#66
0=
#71
b00000000 0
b0001 -
1=
#76
0=
#81
b0010 -
1=
#86
0=
#91
b0011 -
1=
#96
0=
#101
b0100 -
1=
#106
0=
#111
b0101 -
1=
#116
0=
#121
b0110 -
1=
#126
0=
#131
b0111 -
1=
#136
0=
#141
b1000 -
1=
#146
0=
#151
b1001 -
1=
#156
0=
#161
b1010 -
1=
#166
0=
#171
b1011 -
1=
#176
0=
#181
b1100 -
1=
#186
0=
#191
b1101 -
1=
#196
0=
#201
b1110 -
1=
#206
0=
#211
b1111 -
1=
#216
b00010 F
0=
1(
b0000000000000010 >
#221
b11111111 0
b0000 -
b00010 "
b00011 F
14
1D
1=
b0000000000000010 7
#226
b00010 F
0=
0(
#231
b00000000 !
b00000000 0
04
0D
b11111111 H
1=
#236
0=
#241
b11111111 0
b0001 -
b11111111 2
1=
#246
0=
#251
b00000000 0
b0010 -
b00000000 2
1=
#256
0=
#261
b0011 -
1=
#266
0=
#271
b0100 -
1=
#276
0=
#281
b0101 -
1=
#286
0=
#291
b0110 -
1=
#296
0=
#301
b0111 -
1=
#306
0=
#311
b1000 -
1=
#316
0=
#321
b1001 -
1=
#326
0=
#331
b1010 -
1=
#336
0=
#341
b1011 -
1=
#346
0=
#351
b1100 -
1=
#356
0=
#361
b1101 -
1=
#366
0=
#371
b1110 -
1=
#376
0=
#381
b1111 -
1=
#386
b00011 F
0=
1(
b0000000000000011 >
#391
b0000 -
b00011 "
b00100 F
14
1D
1=
b0000000000000011 7
#396
b00011 F
0=
0(
#401
b11111111 !
b11111111 0
04
0D
1=
#406
0=
#411
b0001 -
b11111111 2
1=
#416
0=
#421
b00000000 0
b0010 -
b00000000 2
1=
#426
0=
#431
b0011 -
1=
#436
0=
#441
b0100 -
1=
#446
0=
#451
b0101 -
1=
#456
0=
#461
b0110 -
1=
#466
0=
#471
b0111 -
1=
#476
0=
#481
b1000 -
1=
#486
0=
#491
b1001 -
1=
#496
0=
#501
b1010 -
1=
#506
0=
#511
b1011 -
1=
#516
0=
#521
b1100 -
1=
#526
0=
#531
b1101 -
1=
#536
0=
#541
b1110 -
1=
#546
0=
#551
b1111 -
1=
#556
b00100 F
0=
1(
b0000000000000100 >
#561
b11111111 0
b0000 -
b00100 "
b00101 F
14
1D
1=
b0000000000000100 7
#566
b00100 F
0=
0(
#571
b00000000 !
b00000000 0
04
0D
b11111111 6
b00000000 H
1=
#576
0=
#581
b0001 -
1=
#586
0=
#591
b11111111 0
b0010 -
b11111111 2
b11111111 E
1=
#596
0=
#601
b00000000 0
b0011 -
b00000000 2
b00000000 E
1=
#606
0=
#611
b0100 -
1=
#616
0=
#621
b0101 -
1=
#626
0=
#631
b0110 -
1=
#636
0=
#641
b0111 -
1=
#646
0=
#651
b1000 -
1=
#656
0=
#661
b1001 -
1=
#666
0=
#671
b1010 -
1=
#676
0=
#681
b1011 -
1=
#686
0=
#691
b1100 -
1=
#696
0=
#701
b1101 -
1=
#706
0=
#711
b1110 -
1=
#716
0=
#721
b1111 -
1=
#726
b00101 F
0=
1(
b0000000000000101 >
#731
b0000 -
b00101 "
b00110 F
14
1D
1=
b0000000000000101 7
#736
b00101 F
0=
0(
#741
b11111111 !
b11111111 0
04
0D
1=
#746
0=
#751
b00000000 0
b0001 -
1=
#756
0=
#761
b11111111 0
b0010 -
b11111111 2
b11111111 E
1=
#766
0=
#771
b00000000 0
b0011 -
b00000000 2
b00000000 E
1=
#776
0=
#781
b0100 -
1=
#786
0=
#791
b0101 -
1=
#796
0=
#801
b0110 -
1=
#806
0=
#811
b0111 -
1=
#816
0=
#821
b1000 -
1=
#826
0=
#831
b1001 -
1=
#836
0=
#841
b1010 -
1=
#846
0=
#851
b1011 -
1=
#856
0=
#861
b1100 -
1=
#866
0=
#871
b1101 -
1=
#876
0=
#881
b1110 -
1=
#886
0=
#891
b1111 -
1=
#896
b00110 F
0=
1(
b0000000000000110 >
#901
b11111111 0
b0000 -
b00110 "
b00111 F
14
1D
1=
b0000000000000110 7
#906
b00110 F
0=
0(
#911
b00000000 !
b00000000 0
04
0D
b11111111 H
1=
#916
0=
#921
b11111111 0
b0001 -
b11111111 2
1=
#926
0=
#931
b0010 -
b11111111 E
1=
#936
0=
#941
b00000000 0
b0011 -
b00000000 2
b00000000 E
1=
#946
0=
#951
b0100 -
1=
#956
0=
#961
b0101 -
1=
#966
0=
#971
b0110 -
1=
#976
0=
#981
b0111 -
1=
#986
0=
#991
b1000 -
1=
#996
0=
#1001
b1001 -
1=
#1006
0=
#1011
b1010 -
1=
#1016
0=
#1021
b1011 -
1=
#1026
0=
#1031
b1100 -
1=
#1036
0=
#1041
b1101 -
1=
#1046
0=
#1051
b1110 -
1=
#1056
0=
#1061
b1111 -
1=
#1066
b00111 F
0=
1(
b0000000000000111 >
#1071
b0000 -
b00111 "
b01000 F
14
1D
1=
b0000000000000111 7
#1076
b00111 F
0=
0(
#1081
b11111111 !
b11111111 0
04
0D
1=
#1086
0=
#1091
b0001 -
b11111111 2
1=
#1096
0=
#1101
b0010 -
b11111111 E
1=
#1106
0=
#1111
b00000000 0
b0011 -
b00000000 2
b00000000 E
1=
#1116
0=
#1121
b0100 -
1=
#1126
0=
#1131
b0101 -
1=
#1136
0=
#1141
b0110 -
1=
#1146
0=
#1151
b0111 -
1=
#1156
0=
#1161
b1000 -
1=
#1166
0=
#1171
b1001 -
1=
#1176
0=
#1181
b1010 -
1=
#1186
0=
#1191
b1011 -
1=
#1196
0=
#1201
b1100 -
1=
#1206
0=
#1211
b1101 -
1=
#1216
0=
#1221
b1110 -
1=
#1226
0=
#1231
b1111 -
1=
#1236
b01000 F
0=
1(
b0000000000001000 >
#1241
b11111111 0
b0000 -
b01000 "
b01001 F
14
1D
1=
b0000000000001000 7
#1246
b01000 F
0=
0(
#1251
b00000000 !
b00000000 0
b11111111 %
04
0D
b00000000 6
b00000000 H
1=
#1256
0=
#1261
b0001 -
1=
#1266
0=
#1271
b0010 -
1=
#1276
0=
#1281
b11111111 0
b0011 -
b11111111 .
b11111111 2
b11111111 E
1=
#1286
0=
#1291
b00000000 0
b0100 -
b00000000 .
b00000000 2
b00000000 E
1=
#1296
0=
#1301
b0101 -
1=
#1306
0=
#1311
b0110 -
1=
#1316
0=
#1321
b0111 -
1=
#1326
0=
#1331
b1000 -
1=
#1336
0=
#1341
b1001 -
1=
#1346
0=
#1351
b1010 -
1=
#1356
0=
#1361
b1011 -
1=
#1366
0=
#1371
b1100 -
1=
#1376
0=
#1381
b1101 -
1=
#1386
0=
#1391
b1110 -
1=
#1396
0=
#1401
b1111 -
1=
#1406
b01001 F
0=
1(
b0000000000001001 >
#1411
b0000 -
b01001 "
b01010 F
14
1D
1=
b0000000000001001 7
#1416
b01001 F
0=
0(
#1421
b11111111 !
b11111111 0
04
0D
1=
#1426
0=
#1431
b00000000 0
b0001 -
1=
#1436
0=
#1441
b0010 -
1=
#1446
0=
#1451
b11111111 0
b0011 -
b11111111 .
b11111111 2
b11111111 E
1=
#1456
0=
#1461
b00000000 0
b0100 -
b00000000 .
b00000000 2
b00000000 E
1=
#1466
0=
#1471
b0101 -
1=
#1476
0=
#1481
b0110 -
1=
#1486
0=
#1491
b0111 -
1=
#1496
0=
#1501
b1000 -
1=
#1506
0=
#1511
b1001 -
1=
#1516
0=
#1521
b1010 -
1=
#1526
0=
#1531
b1011 -
1=
#1536
0=
#1541
b1100 -
1=
#1546
0=
#1551
b1101 -
1=
#1556
0=
#1561
b1110 -
1=
#1566
0=
#1571
b1111 -
1=
#1576
b01010 F
0=
1(
b0000000000001010 >
#1581
b11111111 0
b0000 -
b01010 "
b01011 F
14
1D
1=
b0000000000001010 7
#1586
b01010 F
0=
0(
#1591
b00000000 !
b00000000 0
04
0D
b11111111 H
1=
#1596
0=
#1601
b11111111 0
b0001 -
b11111111 2
1=
#1606
0=
#1611
b00000000 0
b0010 -
b00000000 2
1=
#1616
0=
#1621
b11111111 0
b0011 -
b11111111 .
b11111111 2
b11111111 E
1=
#1626
0=
#1631
b00000000 0
b0100 -
b00000000 .
b00000000 2
b00000000 E
1=
#1636
0=
#1641
b0101 -
1=
#1646
0=
#1651
b0110 -
1=
#1656
0=
#1661
b0111 -
1=
#1666
0=
#1671
b1000 -
1=
#1676
0=
#1681
b1001 -
1=
#1686
0=
#1691
b1010 -
1=
#1696
0=
#1701
b1011 -
1=
#1706
0=
#1711
b1100 -
1=
#1716
0=
#1721
b1101 -
1=
#1726
0=
#1731
b1110 -
1=
#1736
0=
#1741
b1111 -
1=
#1746
b01011 F
0=
1(
b0000000000001011 >
#1751
b0000 -
b01011 "
b01100 F
14
1D
1=
b0000000000001011 7
#1756
b01011 F
0=
0(
#1761
b11111111 !
b11111111 0
04
0D
1=
#1766
0=
#1771
b0001 -
b11111111 2
1=
#1776
0=
#1781
b00000000 0
b0010 -
b00000000 2
1=
#1786
0=
#1791
b11111111 0
b0011 -
b11111111 .
b11111111 2
b11111111 E
1=
#1796
0=
#1801
b00000000 0
b0100 -
b00000000 .
b00000000 2
b00000000 E
1=
#1806
0=
#1811
b0101 -
1=
#1816
0=
#1821
b0110 -
1=
#1826
0=
#1831
b0111 -
1=
#1836
0=
#1841
b1000 -
1=
#1846
0=
#1851
b1001 -
1=
#1856
0=
#1861
b1010 -
1=
#1866
0=
#1871
b1011 -
1=
#1876
0=
#1881
b1100 -
1=
#1886
0=
#1891
b1101 -
1=
#1896
0=
#1901
b1110 -
1=
#1906
0=
#1911
b1111 -
1=
#1916
b01100 F
0=
1(
b0000000000001100 >
#1921
b11111111 0
b0000 -
b01100 "
b01101 F
14
1D
1=
b0000000000001100 7
#1926
b01100 F
0=
0(
#1931
b00000000 !
b00000000 0
04
0D
b11111111 6
b00000000 H
1=
#1936
0=
#1941
b0001 -
1=
#1946
0=
#1951
b11111111 0
b0010 -
b11111111 2
b11111111 E
1=
#1956
0=
#1961
b0011 -
b11111111 .
1=
#1966
0=
#1971
b00000000 0
b0100 -
b00000000 .
b00000000 2
b00000000 E
1=
#1976
0=
#1981
b0101 -
1=
#1986
0=
#1991
b0110 -
1=
#1996
0=
#2001
b0111 -
1=
#2006
0=
#2011
b1000 -
1=
#2016
0=
#2021
b1001 -
1=
#2026
0=
#2031
b1010 -
1=
#2036
0=
#2041
b1011 -
1=
#2046
0=
#2051
b1100 -
1=
#2056
0=
#2061
b1101 -
1=
#2066
0=
#2071
b1110 -
1=
#2076
0=
#2081
b1111 -
1=
#2086
b01101 F
0=
1(
b0000000000001101 >
#2091
b0000 -
b01101 "
b01110 F
14
1D
1=
b0000000000001101 7
#2096
b01101 F
0=
0(
#2101
b11111111 !
b11111111 0
04
0D
1=
#2106
0=
#2111
b00000000 0
b0001 -
1=
#2116
0=
#2121
b11111111 0
b0010 -
b11111111 2
b11111111 E
1=
#2126
0=
#2131
b0011 -
b11111111 .
1=
#2136
0=
#2141
b00000000 0
b0100 -
b00000000 .
b00000000 2
b00000000 E
1=
#2146
0=
#2151
b0101 -
1=
#2156
0=
#2161
b0110 -
1=
#2166
0=
#2171
b0111 -
1=
#2176
0=
#2181
b1000 -
1=
#2186
0=
#2191
b1001 -
1=
#2196
0=
#2201
b1010 -
1=
#2206
0=
#2211
b1011 -
1=
#2216
0=
#2221
b1100 -
1=
#2226
0=
#2231
b1101 -
1=
#2236
0=
#2241
b1110 -
1=
#2246
0=
#2251
b1111 -
1=
#2256
b01110 F
0=
1(
b0000000000001110 >
#2261
b11111111 0
b0000 -
b01110 "
b01111 F
14
1D
1=
b0000000000001110 7
#2266
b01110 F
0=
0(
#2271
b00000000 !
b00000000 0
04
0D
b11111111 H
1=
#2276
0=
#2281
b11111111 0
b0001 -
b11111111 2
1=
#2286
0=
#2291
b0010 -
b11111111 E
1=
#2296
0=
#2301
b0011 -
b11111111 .
1=
#2306
0=
#2311
b00000000 0
b0100 -
b00000000 .
b00000000 2
b00000000 E
1=
#2316
0=
#2321
b0101 -
1=
#2326
0=
#2331
b0110 -
1=
#2336
0=
#2341
b0111 -
1=
#2346
0=
#2351
b1000 -
1=
#2356
0=
#2361
b1001 -
1=
#2366
0=
#2371
b1010 -
1=
#2376
0=
#2381
b1011 -
1=
#2386
0=
#2391
b1100 -
1=
#2396
0=
#2401
b1101 -
1=
#2406
0=
#2411
b1110 -
1=
#2416
0=
#2421
b1111 -
1=
#2426
b01111 F
0=
1(
b0000000000001111 >
#2431
b0000 -
b01111 "
b10000 F
14
1D
1=
b0000000000001111 7
#2436
b01111 F
0=
0(
#2441
b11111111 !
b11111111 0
04
0D
1=
#2446
0=
#2451
b0001 -
b11111111 2
1=
#2456
0=
#2461
b0010 -
b11111111 E
1=
#2466
0=
#2471
b0011 -
b11111111 .
1=
#2476
0=
#2481
b00000000 0
b0100 -
b00000000 .
b00000000 2
b00000000 E
1=
#2486
0=
#2491
b0101 -
1=
#2496
0=
#2501
b0110 -
1=
#2506
0=
#2511
b0111 -
1=
#2516
0=
#2521
b1000 -
1=
#2526
0=
#2531
b1001 -
1=
#2536
0=
#2541
b1010 -
1=
#2546
0=
#2551
b1011 -
1=
#2556
0=
#2561
b1100 -
1=
#2566
0=
#2571
b1101 -
1=
#2576
0=
#2581
b1110 -
1=
#2586
0=
#2591
b1111 -
1=
#2596
b10000 F
0=
1(
b0000000000010000 >
#2601
b11111111 0
b0000 -
b10000 "
b10001 F
14
1D
1=
b0000000000010000 7
#2606
b10000 F
0=
0(
#2611
b00000000 !
b00000000 0
b00000000 %
04
b11111111 @
0D
b00000000 6
b00000000 H
1=
#2616
0=
#2621
b0001 -
1=
#2626
0=
#2631
b0010 -
1=
#2636
0=
#2641
b0011 -
1=
#2646
0=
#2651
b11111111 0
b0100 -
b11111111 1
b11111111 .
b11111111 2
b11111111 E
1=
#2656
0=
#2661
b00000000 0
b0101 -
b00000000 1
b00000000 .
b00000000 2
b00000000 E
1=
#2666
0=
#2671
b0110 -
1=
#2676
0=
#2681
b0111 -
1=
#2686
0=
#2691
b1000 -
1=
#2696
0=
#2701
b1001 -
1=
#2706
0=
#2711
b1010 -
1=
#2716
0=
#2721
b1011 -
1=
#2726
0=
#2731
b1100 -
1=
#2736
0=
#2741
b1101 -
1=
#2746
0=
#2751
b1110 -
1=
#2756
0=
#2761
b1111 -
1=
#2766
b10001 F
0=
1(
b0000000000010001 >
#2771
b0000 -
b10001 "
b10010 F
14
1D
1=
b0000000000010001 7
#2776
b10001 F
0=
0(
#2781
b11111111 !
b11111111 0
04
0D
1=
#2786
0=
#2791
b00000000 0
b0001 -
1=
#2796
0=
#2801
b0010 -
1=
#2806
0=
#2811
b0011 -
1=
#2816
0=
#2821
b11111111 0
b0100 -
b11111111 1
b11111111 .
b11111111 2
b11111111 E
1=
#2826
0=
#2831
b00000000 0
b0101 -
b00000000 1
b00000000 .
b00000000 2
b00000000 E
1=
#2836
0=
#2841
b0110 -
1=
#2846
0=
#2851
b0111 -
1=
#2856
0=
#2861
b1000 -
1=
#2866
0=
#2871
b1001 -
1=
#2876
0=
#2881
b1010 -
1=
#2886
0=
#2891
b1011 -
1=
#2896
0=
#2901
b1100 -
1=
#2906
0=
#2911
b1101 -
1=
#2916
0=
#2921
b1110 -
1=
#2926
0=
#2931
b1111 -
1=
#2936
b10010 F
0=
1(
b0000000000010010 >
#2941
b11111111 0
b0000 -
b10010 "
b10011 F
14
1D
1=
b0000000000010010 7
#2946
b10010 F
0=
0(
#2951
b00000000 !
b00000000 0
04
0D
b11111111 H
1=
#2956
0=
#2961
b11111111 0
b0001 -
b11111111 2
1=
#2966
0=
#2971
b00000000 0
b0010 -
b00000000 2
1=
#2976
0=
#2981
b0011 -
1=
#2986
0=
#2991
b11111111 0
b0100 -
b11111111 1
b11111111 .
b11111111 2
b11111111 E
1=
#2996
0=
#3001
b00000000 0
b0101 -
b00000000 1
b00000000 .
b00000000 2
b00000000 E
1=
#3006
0=
#3011
b0110 -
1=
#3016
0=
#3021
b0111 -
1=
#3026
0=
#3031
b1000 -
1=
#3036
0=
#3041
b1001 -
1=
#3046
0=
#3051
b1010 -
1=
#3056
0=
#3061
b1011 -
1=
#3066
0=
#3071
b1100 -
1=
#3076
0=
#3081
b1101 -
1=
#3086
0=
#3091
b1110 -
1=
#3096
0=
#3101
b1111 -
1=
#3106
b10011 F
0=
1(
b0000000000010011 >
#3111
b0000 -
b10011 "
b10100 F
14
1D
1=
b0000000000010011 7
#3116
b10011 F
0=
0(
#3121
b11111111 !
b11111111 0
04
0D
1=
#3126
0=
#3131
b0001 -
b11111111 2
1=
#3136
0=
#3141
b00000000 0
b0010 -
b00000000 2
1=
#3146
0=
#3151
b0011 -
1=
#3156
0=
#3161
b11111111 0
b0100 -
b11111111 1
b11111111 .
b11111111 2
b11111111 E
1=
#3166
0=
#3171
b00000000 0
b0101 -
b00000000 1
b00000000 .
b00000000 2
b00000000 E
1=
#3176
0=
#3181
b0110 -
1=
#3186
0=
#3191
b0111 -
1=
#3196
0=
#3201
b1000 -
1=
#3206
0=
#3211
b1001 -
1=
#3216
0=
#3221
b1010 -
1=
#3226
0=
#3231
b1011 -
1=
#3236
0=
#3241
b1100 -
1=
#3246
0=
#3251
b1101 -
1=
#3256
0=
#3261
b1110 -
1=
#3266
0=
#3271
b1111 -
1=
#3276
b10100 F
0=
1(
b0000000000010100 >
#3281
b11111111 0
b0000 -
b10100 "
b10101 F
14
1D
1=
b0000000000010100 7
#3286
b10100 F
0=
0(
#3291
b00000000 !
b00000000 0
04
0D
b11111111 6
b00000000 H
1=
#3296
0=
#3301
b0001 -
1=
#3306
0=
#3311
b11111111 0
b0010 -
b11111111 2
b11111111 E
1=
#3316
0=
#3321
b00000000 0
b0011 -
b00000000 2
b00000000 E
1=
#3326
0=
#3331
b11111111 0
b0100 -
b11111111 1
b11111111 .
b11111111 2
b11111111 E
1=
#3336
0=
#3341
b00000000 0
b0101 -
b00000000 1
b00000000 .
b00000000 2
b00000000 E
1=
#3346
0=
#3351
b0110 -
1=
#3356
0=
#3361
b0111 -
1=
#3366
0=
#3371
b1000 -
1=
#3376
0=
#3381
b1001 -
1=
#3386
0=
#3391
b1010 -
1=
#3396
0=
#3401
b1011 -
1=
#3406
0=
#3411
b1100 -
1=
#3416
0=
#3421
b1101 -
1=
#3426
0=
#3431
b1110 -
1=
#3436
0=
#3441
b1111 -
1=
#3446
b10101 F
0=
1(
b0000000000010101 >
#3451
b0000 -
b10101 "
b10110 F
14
1D
1=
b0000000000010101 7
#3456
b10101 F
0=
0(
#3461
b11111111 !
b11111111 0
04
0D
1=
#3466
0=
#3471
b00000000 0
b0001 -
1=
#3476
0=
#3481
b11111111 0
b0010 -
b11111111 2
b11111111 E
1=
#3486
0=
#3491
b00000000 0
b0011 -
b00000000 2
b00000000 E
1=
#3496
0=
#3501
b11111111 0
b0100 -
b11111111 1
b11111111 .
b11111111 2
b11111111 E
1=
#3506
0=
#3511
b00000000 0
b0101 -
b00000000 1
b00000000 .
b00000000 2
b00000000 E
1=
#3516
0=
#3521
b0110 -
1=
#3526
0=
#3531
b0111 -
1=
#3536
0=
#3541
b1000 -
1=
#3546
0=
#3551
b1001 -
1=
#3556
0=
#3561
b1010 -
1=
#3566
0=
#3571
b1011 -
1=
#3576
0=
#3581
b1100 -
1=
#3586
0=
#3591
b1101 -
1=
#3596
0=
#3601
b1110 -
1=
#3606
0=
#3611
b1111 -
1=
#3616
b10110 F
0=
1(
b0000000000010110 >
#3621
b11111111 0
b0000 -
b10110 "
b10111 F
14
1D
1=
b0000000000010110 7
#3626
b10110 F
0=
0(
#3631
b00000000 !
b00000000 0
04
0D
b11111111 H
1=
#3636
0=
#3641
b11111111 0
b0001 -
b11111111 2
1=
#3646
0=
#3651
b0010 -
b11111111 E
1=
#3656
0=
#3661
b00000000 0
b0011 -
b00000000 2
b00000000 E
1=
#3666
0=
#3671
b11111111 0
b0100 -
b11111111 1
b11111111 .
b11111111 2
b11111111 E
1=
#3676
0=
#3681
b00000000 0
b0101 -
b00000000 1
b00000000 .
b00000000 2
b00000000 E
1=
#3686
0=
#3691
b0110 -
1=
#3696
0=
#3701
b0111 -
1=
#3706
0=
#3711
b1000 -
1=
#3716
0=
#3721
b1001 -
1=
#3726
0=
#3731
b1010 -
1=
#3736
0=
#3741
b1011 -
1=
#3746
0=
#3751
b1100 -
1=
#3756
0=
#3761
b1101 -
1=
#3766
0=
#3771
b1110 -
1=
#3776
0=
#3781
b1111 -
1=
#3786
b10111 F
0=
1(
b0000000000010111 >
#3791
b0000 -
b10111 "
b11000 F
14
1D
1=
b0000000000010111 7
#3796
b10111 F
0=
0(
#3801
b11111111 !
b11111111 0
04
0D
1=
#3806
0=
#3811
b0001 -
b11111111 2
1=
#3816
0=
#3821
b0010 -
b11111111 E
1=
#3826
0=
#3831
b00000000 0
b0011 -
b00000000 2
b00000000 E
1=
#3836
0=
#3841
b11111111 0
b0100 -
b11111111 1
b11111111 .
b11111111 2
b11111111 E
1=
#3846
0=
#3851
b00000000 0
b0101 -
b00000000 1
b00000000 .
b00000000 2
b00000000 E
1=
#3856
0=
#3861
b0110 -
1=
#3866
0=
#3871
b0111 -
1=
#3876
0=
#3881
b1000 -
1=
#3886
0=
#3891
b1001 -
1=
#3896
0=
#3901
b1010 -
1=
#3906
0=
#3911
b1011 -
1=
#3916
0=
#3921
b1100 -
1=
#3926
0=
#3931
b1101 -
1=
#3936
0=
#3941
b1110 -
1=
#3946
0=
#3951
b1111 -
1=
#3956
b11000 F
0=
1(
b0000000000011000 >
#3961
b11111111 0
b0000 -
b11000 "
b11001 F
14
1D
1=
b0000000000011000 7
#3966
b11000 F
0=
0(
#3971
b00000000 !
b00000000 0
b11111111 %
04
0D
b00000000 6
b00000000 H
1=
#3976
0=
#3981
b0001 -
1=
#3986
0=
#3991
b0010 -
1=
#3996
0=
#4001
b11111111 0
b0011 -
b11111111 .
b11111111 2
b11111111 E
1=
#4006
0=
#4011
b0100 -
b11111111 1
1=
#4016
0=
#4021
b00000000 0
b0101 -
b00000000 1
b00000000 .
b00000000 2
b00000000 E
1=
#4026
0=
#4031
b0110 -
1=
#4036
0=
#4041
b0111 -
1=
#4046
0=
#4051
b1000 -
1=
#4056
0=
#4061
b1001 -
1=
#4066
0=
#4071
b1010 -
1=
#4076
0=
#4081
b1011 -
1=
#4086
0=
#4091
b1100 -
1=
#4096
0=
#4101
b1101 -
1=
#4106
0=
#4111
b1110 -
1=
#4116
0=
#4121
b1111 -
1=
#4126
b11001 F
0=
1(
b0000000000011001 >
#4131
b0000 -
b11001 "
b11010 F
14
1D
1=
b0000000000011001 7
#4136
b11001 F
0=
0(
#4141
b11111111 !
b11111111 0
04
0D
1=
#4146
0=
#4151
b00000000 0
b0001 -
1=
#4156
0=
#4161
b0010 -
1=
#4166
0=
#4171
b11111111 0
b0011 -
b11111111 .
b11111111 2
b11111111 E
1=
#4176
0=
#4181
b0100 -
b11111111 1
1=
#4186
0=
#4191
b00000000 0
b0101 -
b00000000 1
b00000000 .
b00000000 2
b00000000 E
1=
#4196
0=
#4201
b0110 -
1=
#4206
0=
#4211
b0111 -
1=
#4216
0=
#4221
b1000 -
1=
#4226
0=
#4231
b1001 -
1=
#4236
0=
#4241
b1010 -
1=
#4246
0=
#4251
b1011 -
1=
#4256
0=
#4261
b1100 -
1=
#4266
0=
#4271
b1101 -
1=
#4276
0=
#4281
b1110 -
1=
#4286
0=
#4291
b1111 -
1=
#4296
b11010 F
0=
1(
b0000000000011010 >
#4301
b11111111 0
b0000 -
b11010 "
b11011 F
14
1D
1=
b0000000000011010 7
#4306
b11010 F
0=
0(
#4311
b00000000 !
b00000000 0
04
0D
b11111111 H
1=
#4316
0=
#4321
b11111111 0
b0001 -
b11111111 2
1=
#4326
0=
#4331
b00000000 0
b0010 -
b00000000 2
1=
#4336
0=
#4341
b11111111 0
b0011 -
b11111111 .
b11111111 2
b11111111 E
1=
#4346
0=
#4351
b0100 -
b11111111 1
1=
#4356
0=
#4361
b00000000 0
b0101 -
b00000000 1
b00000000 .
b00000000 2
b00000000 E
1=
#4366
0=
#4371
b0110 -
1=
#4376
0=
#4381
b0111 -
1=
#4386
0=
#4391
b1000 -
1=
#4396
0=
#4401
b1001 -
1=
#4406
0=
#4411
b1010 -
1=
#4416
0=
#4421
b1011 -
1=
#4426
0=
#4431
b1100 -
1=
#4436
0=
#4441
b1101 -
1=
#4446
0=
#4451
b1110 -
1=
#4456
0=
#4461
b1111 -
1=
#4466
b11011 F
0=
1(
b0000000000011011 >
#4471
b0000 -
b11011 "
b11100 F
14
1D
1=
b0000000000011011 7
#4476
b11011 F
0=
0(
#4481
b11111111 !
b11111111 0
04
0D
1=
#4486
0=
#4491
b0001 -
b11111111 2
1=
#4496
0=
#4501
b00000000 0
b0010 -
b00000000 2
1=
#4506
0=
#4511
b11111111 0
b0011 -
b11111111 .
b11111111 2
b11111111 E
1=
#4516
0=
#4521
b0100 -
b11111111 1
1=
#4526
0=
#4531
b00000000 0
b0101 -
b00000000 1
b00000000 .
b00000000 2
b00000000 E
1=
#4536
0=
#4541
b0110 -
1=
#4546
0=
#4551
b0111 -
1=
#4556
0=
#4561
b1000 -
1=
#4566
0=
#4571
b1001 -
1=
#4576
0=
#4581
b1010 -
1=
#4586
0=
#4591
b1011 -
1=
#4596
0=
#4601
b1100 -
1=
#4606
0=
#4611
b1101 -
1=
#4616
0=
#4621
b1110 -
1=
#4626
0=
#4631
b1111 -
1=
#4636
b11100 F
0=
1(
b0000000000011100 >
#4641
b11111111 0
b0000 -
b11100 "
b11101 F
14
1D
1=
b0000000000011100 7
#4646
b11100 F
0=
0(
#4651
b00000000 !
b00000000 0
04
0D
b11111111 6
b00000000 H
1=
#4656
0=
#4661
b0001 -
1=
#4666
0=
#4671
b11111111 0
b0010 -
b11111111 2
b11111111 E
1=
#4676
0=
#4681
b0011 -
b11111111 .
1=
#4686
0=
#4691
b0100 -
b11111111 1
1=
#4696
0=
#4701
b00000000 0
b0101 -
b00000000 1
b00000000 .
b00000000 2
b00000000 E
1=
#4706
0=
#4711
b0110 -
1=
#4716
0=
#4721
b0111 -
1=
#4726
0=
#4731
b1000 -
1=
#4736
0=
#4741
b1001 -
1=
#4746
0=
#4751
b1010 -
1=
#4756
0=
#4761
b1011 -
1=
#4766
0=
#4771
b1100 -
1=
#4776
0=
#4781
b1101 -
1=
#4786
0=
#4791
b1110 -
1=
#4796
0=
#4801
b1111 -
1=
#4806
b11101 F
0=
1(
b0000000000011101 >
#4811
b0000 -
b11101 "
b11110 F
14
1D
1=
b0000000000011101 7
#4816
b11101 F
0=
0(
#4821
b11111111 !
b11111111 0
04
0D
1=
#4826
0=
#4831
b00000000 0
b0001 -
1=
#4836
0=
#4841
b11111111 0
b0010 -
b11111111 2
b11111111 E
1=
#4846
0=
#4851
b0011 -
b11111111 .
1=
#4856
0=
#4861
b0100 -
b11111111 1
1=
#4866
0=
